%YAML 1.1
%TAG !u! tag:unity3d.com,2011:
--- !u!114 &11400000
MonoBehaviour:
  m_ObjectHideFlags: 0
  m_CorrespondingSourceObject: {fileID: 0}
  m_PrefabInstance: {fileID: 0}
  m_PrefabAsset: {fileID: 0}
  m_GameObject: {fileID: 0}
  m_Enabled: 1
  m_EditorHideFlags: 0
  m_Script: {fileID: 11500000, guid: 9d5174312c1e740419b3c935d89300bc, type: 3}
  m_Name: Cube
  m_EditorClassIdentifier: 
  shapeAttribute:
    shape: {fileID: 3314567861590562433, guid: fcecdeae025078c45bcc94c8bec6e197, type: 3}
    pointAttribute:
      hp: 100
      atk: 10
